[gd_scene load_steps=3 format=2]

[ext_resource path="res://day_scene.gd" type="Script" id=1]
[ext_resource path="res://Circus Marcus - 1 - La brise.wav" type="AudioStream" id=2]

[node name="day_scene" type="Node" index="0"]

script = ExtResource( 1 )

[node name="background" type="Panel" parent="." index="0"]

modulate = Color( 0, 0, 0, 1 )
anchor_left = 0.0
anchor_top = 0.0
anchor_right = 0.0
anchor_bottom = 0.0
margin_left = -50.0
margin_top = -30.0
margin_right = 1960.0
margin_bottom = 1170.0
rect_pivot_offset = Vector2( 0, 0 )
mouse_filter = 0
mouse_default_cursor_shape = 0
size_flags_horizontal = 1
size_flags_vertical = 1
_sections_unfolded = [ "Visibility" ]

[node name="day_name" type="RichTextLabel" parent="." index="1"]

anchor_left = 0.0
anchor_top = 0.0
anchor_right = 0.0
anchor_bottom = 0.0
margin_left = 770.0
margin_top = 440.0
margin_right = 1090.0
margin_bottom = 630.0
rect_pivot_offset = Vector2( 0, 0 )
rect_clip_content = true
mouse_filter = 0
mouse_default_cursor_shape = 0
size_flags_horizontal = 1
size_flags_vertical = 1
bbcode_enabled = false
bbcode_text = ""
visible_characters = -1
percent_visible = 1.0
meta_underlined = true
tab_size = 4
text = ""
scroll_active = true
scroll_following = false
selection_enabled = false
override_selected_font_color = false

[node name="looping_audio" type="AudioStreamPlayer" parent="." index="2"]

stream = ExtResource( 2 )
volume_db = -10.0
autoplay = true
mix_target = 0
bus = "Master"


