[gd_scene load_steps=3 format=2]

[ext_resource path="res://menu_scene.gd" type="Script" id=1]
[ext_resource path="res://acceuil.png" type="Texture" id=2]

[node name="menu_scene" type="Node"]

script = ExtResource( 1 )

[node name="background" type="Panel" parent="." index="0"]

modulate = Color( 0, 0, 0, 1 )
anchor_left = 0.0
anchor_top = 0.0
anchor_right = 0.0
anchor_bottom = 0.0
margin_left = -20.0
margin_top = -20.0
margin_right = 1960.0
margin_bottom = 1100.0
rect_pivot_offset = Vector2( 0, 0 )
mouse_filter = 0
mouse_default_cursor_shape = 0
size_flags_horizontal = 1
size_flags_vertical = 1
_sections_unfolded = [ "Visibility" ]

[node name="menu_sprite" type="Sprite" parent="." index="1"]

position = Vector2( 960, 540 )
texture = ExtResource( 2 )


