[gd_scene load_steps=3 format=2]

[ext_resource path="res://allee_etroite.png" type="Texture" id=1]

[sub_resource type="RectangleShape2D" id=1]

custom_solver_bias = 0.0
extents = Vector2( 9.64516, 10 )

[node name="path" type="Area2D"]

position = Vector2( -1, 0 )
scale = Vector2( 0.96875, 1 )
input_pickable = true
gravity_vec = Vector2( 0, 1 )
gravity = 98.0
linear_damp = 0.1
angular_damp = 1.0
audio_bus_override = false
audio_bus_name = "Master"

[node name="sprite" type="Sprite" parent="." index="0"]

position = Vector2( 0, -260 )
scale = Vector2( 1, 1.07222 )
texture = ExtResource( 1 )

[node name="CollisionShape2D" type="CollisionShape2D" parent="." index="1"]

position = Vector2( -1.09673e-05, -95.5 )
scale = Vector2( 12.6531, 10.3462 )
shape = SubResource( 1 )


