[gd_scene load_steps=2 format=2]

[ext_resource path="res://popupdialogs.gd" type="Script" id=1]

[node name="popupdialogs" type="PopupDialog" index="0"]

anchor_left = 0.0
anchor_top = 0.0
anchor_right = 0.0
anchor_bottom = 0.0
margin_left = 610.0
margin_top = 440.0
margin_right = 1230.0
margin_bottom = 650.0
rect_pivot_offset = Vector2( 0, 0 )
mouse_filter = 0
mouse_default_cursor_shape = 0
size_flags_horizontal = 1
size_flags_vertical = 1
popup_exclusive = false
script = ExtResource( 1 )
_sections_unfolded = [ "Popup", "Rect" ]

[node name="tomb_text" type="RichTextLabel" parent="." index="0"]

anchor_left = 0.0
anchor_top = 0.0
anchor_right = 0.0
anchor_bottom = 0.0
margin_left = 60.0
margin_top = 20.0
margin_right = 560.0
margin_bottom = 190.0
rect_pivot_offset = Vector2( 0, 0 )
rect_clip_content = true
mouse_filter = 0
mouse_default_cursor_shape = 0
size_flags_horizontal = 1
size_flags_vertical = 1
bbcode_enabled = false
bbcode_text = ""
visible_characters = -1
percent_visible = 1.0
meta_underlined = true
tab_size = 4
text = ""
scroll_active = true
scroll_following = false
selection_enabled = false
override_selected_font_color = false
_sections_unfolded = [ "Rect" ]


