; Engine configuration file.
; It's best edited using the editor UI and not directly,
; since the parameters that go here are not all obvious.
;
; Format:
;   [section] ; section goes between []
;   param=value ; assign values to parameters

config_version=3

[application]

config/name="Instant_Noodles_LD42"
run/main_scene="res://menu_scene.tscn"
boot_splash/fullsize=false
config/icon="res://icon.png"

[autoload]

global="*res://global.gd"

[display]

window/size/width=1920
window/size/height=1080

[rendering]

environment/default_environment="res://default_env.tres"
