[gd_resource type="TileSet" load_steps=17 format=2]

[ext_resource path="res://soltronqu__.png" type="Texture" id=1]
[ext_resource path="res://buisson.png" type="Texture" id=2]
[ext_resource path="res://bench.png" type="Texture" id=3]
[ext_resource path="res://buissondeco01.png" type="Texture" id=4]
[ext_resource path="res://buissondeco02.png" type="Texture" id=5]
[ext_resource path="res://buissondeco03.png" type="Texture" id=6]
[ext_resource path="res://sol_3.png" type="Texture" id=7]
[ext_resource path="res://Rectangle 12.png" type="Texture" id=8]
[ext_resource path="res://maison.png" type="Texture" id=9]
[ext_resource path="res://sol_2.png" type="Texture" id=10]
[ext_resource path="res://bande_noire.png" type="Texture" id=11]
[ext_resource path="res://niveau_depart.png" type="Texture" id=12]
[ext_resource path="res://niveau_fosse.png" type="Texture" id=13]
[ext_resource path="res://niveau_base.png" type="Texture" id=14]

[sub_resource type="ConvexPolygonShape2D" id=1]

custom_solver_bias = 0.0
points = PoolVector2Array( -30, -32, 30, -32, 30, 32, -30, 32 )

[sub_resource type="ConvexPolygonShape2D" id=2]

custom_solver_bias = 0.0
points = PoolVector2Array( 30, 30, -30, 30, -30, -30, 30, -30 )

[resource]

0/name = "ground"
0/texture = ExtResource( 1 )
0/tex_offset = Vector2( 0, 0 )
0/modulate = Color( 1, 1, 1, 1 )
0/region = Rect2( 0, 0, 64, 192 )
0/is_autotile = false
0/occluder_offset = Vector2( 32, 96 )
0/navigation_offset = Vector2( 32, 96 )
0/shapes = [ {
"autotile_coord": Vector2( 0, 0 ),
"one_way": false,
"shape": SubResource( 1 ),
"shape_transform": Transform2D( 1, 0, 0, 1, 32, 96 )
} ]
1/name = "bush"
1/texture = ExtResource( 2 )
1/tex_offset = Vector2( 0, 0 )
1/modulate = Color( 1, 1, 1, 1 )
1/region = Rect2( 0, 0, 256, 320 )
1/is_autotile = false
1/occluder_offset = Vector2( 128, 160 )
1/navigation_offset = Vector2( 128, 160 )
1/shapes = [  ]
2/name = "grass"
2/texture = ExtResource( 7 )
2/tex_offset = Vector2( 0, 0 )
2/modulate = Color( 1, 1, 1, 1 )
2/region = Rect2( 0, 0, 64, 128 )
2/is_autotile = false
2/occluder_offset = Vector2( 32, 64 )
2/navigation_offset = Vector2( 32, 64 )
2/shapes = [  ]
3/name = "end_tile"
3/texture = ExtResource( 8 )
3/tex_offset = Vector2( 0, 0 )
3/modulate = Color( 1, 1, 1, 1 )
3/region = Rect2( 0, 0, 64, 64 )
3/is_autotile = false
3/occluder_offset = Vector2( 32, 32 )
3/navigation_offset = Vector2( 32, 32 )
3/shapes = [ {
"autotile_coord": Vector2( 0, 0 ),
"one_way": false,
"shape": SubResource( 2 ),
"shape_transform": Transform2D( 1, 0, 0, 1, 32, 32 )
} ]
4/name = "home"
4/texture = ExtResource( 9 )
4/tex_offset = Vector2( 0, 0 )
4/modulate = Color( 1, 1, 1, 1 )
4/region = Rect2( 0, 0, 1208, 1080 )
4/is_autotile = false
4/occluder_offset = Vector2( 604, 540 )
4/navigation_offset = Vector2( 604, 540 )
4/shapes = [  ]
5/name = "path"
5/texture = ExtResource( 10 )
5/tex_offset = Vector2( 0, 0 )
5/modulate = Color( 1, 1, 1, 1 )
5/region = Rect2( 0, 0, 64, 128 )
5/is_autotile = false
5/occluder_offset = Vector2( 32, 64 )
5/navigation_offset = Vector2( 32, 64 )
5/shapes = [  ]
6/name = "black_line"
6/texture = ExtResource( 11 )
6/tex_offset = Vector2( 0, 0 )
6/modulate = Color( 1, 1, 1, 1 )
6/region = Rect2( 0, 0, 64, 16 )
6/is_autotile = false
6/occluder_offset = Vector2( 32, 8 )
6/navigation_offset = Vector2( 32, 8 )
6/shapes = [  ]
7/name = "stage1"
7/texture = ExtResource( 12 )
7/tex_offset = Vector2( 0, 0 )
7/modulate = Color( 1, 1, 1, 1 )
7/region = Rect2( 0, 0, 6200, 1080 )
7/is_autotile = false
7/occluder_offset = Vector2( 3100, 540 )
7/navigation_offset = Vector2( 3100, 540 )
7/shapes = [  ]
8/name = "stage5"
8/texture = ExtResource( 13 )
8/tex_offset = Vector2( 0, 0 )
8/modulate = Color( 1, 1, 1, 1 )
8/region = Rect2( 0, 0, 6600, 1080 )
8/is_autotile = false
8/occluder_offset = Vector2( 3300, 540 )
8/navigation_offset = Vector2( 3300, 540 )
8/shapes = [  ]
9/name = "stages"
9/texture = ExtResource( 14 )
9/tex_offset = Vector2( 0, 0 )
9/modulate = Color( 1, 1, 1, 1 )
9/region = Rect2( 0, 0, 6200, 1080 )
9/is_autotile = false
9/occluder_offset = Vector2( 3100, 540 )
9/navigation_offset = Vector2( 3100, 540 )
9/shapes = [  ]
10/name = "bench"
10/texture = ExtResource( 3 )
10/tex_offset = Vector2( 0, 0 )
10/modulate = Color( 1, 1, 1, 1 )
10/region = Rect2( 0, 0, 640, 384 )
10/is_autotile = false
10/occluder_offset = Vector2( 320, 192 )
10/navigation_offset = Vector2( 320, 192 )
10/shapes = [  ]
11/name = "bush1"
11/texture = ExtResource( 4 )
11/tex_offset = Vector2( 0, 0 )
11/modulate = Color( 1, 1, 1, 1 )
11/region = Rect2( 0, 0, 320, 1080 )
11/is_autotile = false
11/occluder_offset = Vector2( 160, 540 )
11/navigation_offset = Vector2( 160, 540 )
11/shapes = [  ]
12/name = "bush2"
12/texture = ExtResource( 5 )
12/tex_offset = Vector2( 0, 0 )
12/modulate = Color( 1, 1, 1, 1 )
12/region = Rect2( 0, 0, 320, 1080 )
12/is_autotile = false
12/occluder_offset = Vector2( 160, 540 )
12/navigation_offset = Vector2( 160, 540 )
12/shapes = [  ]
13/name = "bush3"
13/texture = ExtResource( 6 )
13/tex_offset = Vector2( 0, 0 )
13/modulate = Color( 1, 1, 1, 1 )
13/region = Rect2( 0, 0, 320, 1080 )
13/is_autotile = false
13/occluder_offset = Vector2( 160, 540 )
13/navigation_offset = Vector2( 160, 540 )
13/shapes = [  ]
_sections_unfolded = [ "0" ]

